; Engine configuration file.
; It's best edited using the editor UI and not directly,
; since the parameters that go here are not all obvious.
;
; Format:
;   [section] ; section goes between []
;   param=value ; assign values to parameters

config_version=4

_global_script_classes=[  ]
_global_script_class_icons={
}

[application]

config/name="island"
run/main_scene="res://island/island.tscn"
config/icon="res://icon.png"

[display]

window/size/width=720
window/size/height=1280
window/size/test_width=360
window/size/test_height=640

[rendering]

quality/driver/fallback_to_gles2=true
vram_compression/import_etc=true
environment/default_environment="res://default_env.tres"
